PRR MINICHALLENGE FS24
…
summary(immoscout24_df)

  Price [CHF]     Size [m2]         PLZ                City          
 Min.   :1790   Min.   :  2.0   Length:299         Length:299        
 1st Qu.:2630   1st Qu.: 85.0   Class :character   Class :character  
 Median :3000   Median : 92.0   Mode  :character   Mode  :character  
 Mean   :3434   Mean   :101.0                                        
 3rd Qu.:3990   3rd Qu.:108.5                                        
 Max.   :8750   Max.   :250.0                                        
 NA's   :8      NA's   :36                                           

print(immoscout24_df)

# A tibble: 299 × 4
   `Price [CHF]` `Size [m2]` PLZ   City 
           <dbl>       <dbl> <chr> <chr>
 1          2900          80 4058  basel
 2          3660         130 4057  basel
 3          2560          80 4057  basel
 4          2770          79 4053  basel
 5          2700          85 4056  basel
 6          3260          77 4054  basel
 7          2280          79 4058  basel
 8          5540         170 4001  basel
 9          3910         160 4052  basel
10          4410         170 4057  basel
# ℹ 289 more rows
…
